{
  "project_info": {
    "project_number": "574828981822",
    "project_id": "shinhan-1774d",
    "storage_bucket": "shinhan-1774d.appspot.com"
  },
  "client": [
    {
      "client_info": {
        "mobilesdk_app_id": "1:574828981822:android:272d3233627a4c1ff8ab6f",
        "android_client_info": {
          "package_name": "kr.co.july.shinhan"
        }
      },
      "oauth_client": [
        {
          "client_id": "574828981822-r5rcd88eqfqapop5tgnsk6vntqcea0ic.apps.googleusercontent.com",
          "client_type": 3
        }
      ],
      "api_key": [
        {
          "current_key": "AIzaSyDk5pg_1hgjccTCOItjQ9BG8ssNIx_Lxrk"
        }
      ],
      "services": {
        "appinvite_service": {
          "other_platform_oauth_client": [
            {
              "client_id": "574828981822-r5rcd88eqfqapop5tgnsk6vntqcea0ic.apps.googleusercontent.com",
              "client_type": 3
            }
          ]
        }
      }
    }
  ],
  "configuration_version": "1"
}